<!-- Copyright 2000-2022 JetBrains s.r.o. and contributors. Use of this source code is governed by the Apache 2.0 license. -->
<svg width="16" height="16" viewBox="0 0 16 16" fill="none" xmlns="http://www.w3.org/2000/svg">
<circle cx="10.5" cy="5.5" r="1" fill="#6C707E"/>
<path d="M8.49977 1.84324L13.4495 2.55035L14.1566 7.5001L6.65673 15.0001L0.999872 9.34324L8.49977 1.84324Z" stroke="#6C707E" stroke-linejoin="round"/>
</svg>
