UFile (package = )
    UClass (name = LambdaExpressionFunctionalInterfaceTypeKt)
        UMethod (name = streamMap)
            UBlockExpression
                UQualifiedReferenceExpression
                    UQualifiedReferenceExpression
                        UQualifiedReferenceExpression
                            UQualifiedReferenceExpression
                                UQualifiedReferenceExpression
                                    USimpleNameReferenceExpression (identifier = java)
                                    USimpleNameReferenceExpression (identifier = util)
                                USimpleNameReferenceExpression (identifier = stream)
                            USimpleNameReferenceExpression (identifier = Stream)
                        UCallExpression (kind = UastCallKind(name='method_call'), argCount = 2))
                            UIdentifier (Identifier (of))
                            USimpleNameReferenceExpression (identifier = of, resolvesTo = null)
                            ULiteralExpression (value = 1)
                            ULiteralExpression (value = 2)
                    UCallExpression (kind = UastCallKind(name='method_call'), argCount = 1))
                        UIdentifier (Identifier (map))
                        USimpleNameReferenceExpression (identifier = map, resolvesTo = null)
                        ULambdaExpression
                            UParameter (name = it)
                            UBlockExpression
                                UReturnExpression
                                    UQualifiedReferenceExpression
                                        USimpleNameReferenceExpression (identifier = it)
                                        UCallExpression (kind = UastCallKind(name='method_call'), argCount = 0))
                                            UIdentifier (Identifier (toString))
                                            USimpleNameReferenceExpression (identifier = toString, resolvesTo = null)
